{
    "rules": {
        "align": [
            true,
            "statements"
        ],
        "ban": false,
        "class-name": true,
        "comment-format": [
            true,
            "check-space"
        ],
        "curly": true,
        "eofline": true,
        "forin": true,
        "indent": [
            true,
            "spaces"
        ],
        "interface-name": [
            true
        ],
        "jsdoc-format": true,
        "label-position": true,
        "max-line-length": [
            false
        ],
        "member-access": false,
        "member-ordering": [
            true,
            {
                "order": [
                    "static-field",
                    "instance-field",
                    "constructor",
                    "public-instance-method",
                    "protected-instance-method",
                    "private-instance-method"
                ]
            }
        ],
        "no-any": false,
        "no-arg": true,
        "no-bitwise": false,
        "no-conditional-assignment": false,
        "no-consecutive-blank-lines": true,
        "no-console": [
            true,
            "debug",
            "info",
            "time",
            "timeEnd",
            "trace"
        ],
        "no-construct": true,
        "no-constructor-vars": false,
        "no-debugger": true,
        "no-duplicate-variable": true,
        "no-empty": false,
        "no-eval": true,
        "no-inferrable-types": true,
        "no-internal-module": true,
        "no-null-keyword": false,
        "no-require-imports": false,
        "no-shadowed-variable": false,
        "no-string-literal": true,
        "no-switch-case-fall-through": false,
        "no-trailing-whitespace": true,
        "no-unused-expression": true,
        "no-unused-variable": false,
        "no-use-before-declare": true,
        "no-var-keyword": true,
        "no-var-requires": false,
        "object-literal-sort-keys": true,
        "one-line": [
            true,
            "check-open-brace",
            "check-catch",
            "check-else",
            "check-whitespace"
        ],
        "quotemark": [
            true,
            "single"
        ],
        "radix": true,
        "semicolon": [
            false,
            "never"
        ],
        "switch-default": true,
        "trailing-comma": [
            true,
            {
                "multiline": "always",
                "singleline": "never"
            }
        ],
        "triple-equals": [
            true,
            "allow-null-check"
        ],
        "typedef": [
            true,
            "call-signature",
            "property-declaration"
        ],
        "typedef-whitespace": [
            true,
            {
                "call-signature": "nospace",
                "index-signature": "nospace",
                "parameter": "nospace",
                "property-declaration": "nospace",
                "variable-declaration": "nospace"
            }
        ],
        "variable-name": false,
        "whitespace": [
            true,
            "check-branch",
            "check-decl",
            "check-operator",
            "check-separator",
            "check-type"
        ]
    }
}
